
-
    request:
        method: GET
        url: 'https://244134adc586447f.api-us.cometchat.io/v3/users?perPage=5&page=1'
        headers:
            Host: 244134adc586447f.api-us.cometchat.io
            Expect: ''
            Accept-Encoding: ''
            User-Agent: GuzzleHttp/7
            accept: application/json
            apikey: 4c3e5b5a96da90cc4bb3f3013d22e72aaea802c9
            content-type: application/json
        body: '[]'
    response:
        status:
            code: 200
            message: OK
        headers:
            Date: 'Thu, 14 Sep 2023 05:06:42 GMT'
            Content-Type: application/json
            Content-Length: '633'
            Connection: close
            Server: ''
            cache-control: 'must-revalidate, no-cache, private'
            Vary: Accept-Encoding
            Content-Encoding: none
            X-RateLimit-Limit: '20000'
            X-RateLimit-Remaining: '19998'
            X-RateLimit-Limit-For-App: '100000'
            X-RateLimit-Remaining-For-App: '99973'
            Access-Control-Allow-Origin: '*'
            Access-Control-Allow-Methods: 'OPTIONS,HEAD,GET,POST,PUT,PATCH,DELETE'
            Access-Control-Allow-Headers: 'Content-Type,Accept,Cache-Control,Authorization,X-Requested-With,appId,apiKey,authToken,onBehalfOf,resource,Accept-Encoding,group,region,sdk,guid,uid,clientEnvironment,extensionId,username,password,callToken,onBehalfOfUser'
            Accept: application/json
            Upgrade: 'h2,h2c'
        body: '{"data":[{"uid":"user_024","name":"user_024","status":"offline","role":"default","createdAt":1694667984},{"uid":"user_023","name":"user_023","status":"offline","role":"default","createdAt":1694667983},{"uid":"user_022","name":"user_022","status":"offline","role":"default","createdAt":1694667982},{"uid":"user_021","name":"user_021","status":"offline","role":"default","createdAt":1694667981},{"uid":"user_020","name":"user_020","status":"offline","role":"default","createdAt":1694667980}],"meta":{"pagination":{"total":25,"count":5,"per_page":5,"current_page":1,"total_pages":5},"cursor":{"updatedAt":1694667984,"affix":"prepend"}}}'
        curl_info:
            url: 'https://244134adc586447f.api-us.cometchat.io/v3/users?perPage=5&page=1'
            content_type: application/json
            http_code: 200
            header_size: 764
            request_size: 242
            filetime: -1
            ssl_verify_result: 0
            redirect_count: 0
            total_time: 1.047412
            namelookup_time: 0.003141
            connect_time: 0.272812
            pretransfer_time: 0.750464
            size_upload: 2.0
            size_download: 633.0
            speed_download: 604.0
            speed_upload: 1.0
            download_content_length: 633.0
            upload_content_length: 2.0
            starttransfer_time: 1.047342
            redirect_time: 0.0
            redirect_url: ''
            primary_ip: 18.218.180.174
            certinfo: {  }
            primary_port: 443
            local_ip: 192.168.15.243
            local_port: 55883
            http_version: 2
            protocol: 2
            ssl_verifyresult: 0
            scheme: HTTPS
            appconnect_time_us: 750291
            connect_time_us: 272812
            namelookup_time_us: 3141
            pretransfer_time_us: 750464
            redirect_time_us: 0
            starttransfer_time_us: 1047342
            total_time_us: 1047412
    index: 0
-
    request:
        method: GET
        url: 'https://244134adc586447f.api-us.cometchat.io/v3/users?perPage=5&page=2'
        headers:
            Host: 244134adc586447f.api-us.cometchat.io
            Expect: ''
            Accept-Encoding: ''
            User-Agent: GuzzleHttp/7
            accept: application/json
            apikey: 4c3e5b5a96da90cc4bb3f3013d22e72aaea802c9
            content-type: application/json
        body: '[]'
    response:
        status:
            code: 200
            message: OK
        headers:
            Date: 'Thu, 14 Sep 2023 05:06:43 GMT'
            Content-Type: application/json
            Content-Length: '633'
            Connection: close
            Server: ''
            cache-control: 'must-revalidate, no-cache, private'
            Vary: Accept-Encoding
            Content-Encoding: none
            X-RateLimit-Limit: '20000'
            X-RateLimit-Remaining: '19997'
            X-RateLimit-Limit-For-App: '100000'
            X-RateLimit-Remaining-For-App: '99972'
            Access-Control-Allow-Origin: '*'
            Access-Control-Allow-Methods: 'OPTIONS,HEAD,GET,POST,PUT,PATCH,DELETE'
            Access-Control-Allow-Headers: 'Content-Type,Accept,Cache-Control,Authorization,X-Requested-With,appId,apiKey,authToken,onBehalfOf,resource,Accept-Encoding,group,region,sdk,guid,uid,clientEnvironment,extensionId,username,password,callToken,onBehalfOfUser'
            Accept: application/json
        body: '{"data":[{"uid":"user_019","name":"user_019","status":"offline","role":"default","createdAt":1694667979},{"uid":"user_018","name":"user_018","status":"offline","role":"default","createdAt":1694667978},{"uid":"user_017","name":"user_017","status":"offline","role":"default","createdAt":1694667976},{"uid":"user_016","name":"user_016","status":"offline","role":"default","createdAt":1694667975},{"uid":"user_015","name":"user_015","status":"offline","role":"default","createdAt":1694667974}],"meta":{"pagination":{"total":25,"count":5,"per_page":5,"current_page":2,"total_pages":5},"cursor":{"updatedAt":1694667984,"affix":"prepend"}}}'
        curl_info:
            url: 'https://244134adc586447f.api-us.cometchat.io/v3/users?perPage=5&page=2'
            content_type: application/json
            http_code: 200
            header_size: 747
            request_size: 242
            filetime: -1
            ssl_verify_result: 0
            redirect_count: 0
            total_time: 0.950127
            namelookup_time: 0.001758
            connect_time: 0.221663
            pretransfer_time: 0.68748
            size_upload: 2.0
            size_download: 633.0
            speed_download: 666.0
            speed_upload: 2.0
            download_content_length: 633.0
            upload_content_length: 2.0
            starttransfer_time: 0.950007
            redirect_time: 0.0
            redirect_url: ''
            primary_ip: 18.218.180.174
            certinfo: {  }
            primary_port: 443
            local_ip: 192.168.15.243
            local_port: 55888
            http_version: 2
            protocol: 2
            ssl_verifyresult: 0
            scheme: HTTPS
            appconnect_time_us: 687162
            connect_time_us: 221663
            namelookup_time_us: 1758
            pretransfer_time_us: 687480
            redirect_time_us: 0
            starttransfer_time_us: 950007
            total_time_us: 950127
    index: 0
-
    request:
        method: GET
        url: 'https://244134adc586447f.api-us.cometchat.io/v3/users?perPage=5&page=3'
        headers:
            Host: 244134adc586447f.api-us.cometchat.io
            Expect: ''
            Accept-Encoding: ''
            User-Agent: GuzzleHttp/7
            accept: application/json
            apikey: 4c3e5b5a96da90cc4bb3f3013d22e72aaea802c9
            content-type: application/json
        body: '[]'
    response:
        status:
            code: 200
            message: OK
        headers:
            Date: 'Thu, 14 Sep 2023 05:06:44 GMT'
            Content-Type: application/json
            Content-Length: '633'
            Connection: close
            Server: ''
            cache-control: 'must-revalidate, no-cache, private'
            Vary: Accept-Encoding
            Content-Encoding: none
            X-RateLimit-Limit: '20000'
            X-RateLimit-Remaining: '19996'
            X-RateLimit-Limit-For-App: '100000'
            X-RateLimit-Remaining-For-App: '99971'
            Access-Control-Allow-Origin: '*'
            Access-Control-Allow-Methods: 'OPTIONS,HEAD,GET,POST,PUT,PATCH,DELETE'
            Access-Control-Allow-Headers: 'Content-Type,Accept,Cache-Control,Authorization,X-Requested-With,appId,apiKey,authToken,onBehalfOf,resource,Accept-Encoding,group,region,sdk,guid,uid,clientEnvironment,extensionId,username,password,callToken,onBehalfOfUser'
            Accept: application/json
            Upgrade: 'h2,h2c'
        body: '{"data":[{"uid":"user_014","name":"user_014","status":"offline","role":"default","createdAt":1694667973},{"uid":"user_013","name":"user_013","status":"offline","role":"default","createdAt":1694667972},{"uid":"user_012","name":"user_012","status":"offline","role":"default","createdAt":1694667971},{"uid":"user_011","name":"user_011","status":"offline","role":"default","createdAt":1694667970},{"uid":"user_010","name":"user_010","status":"offline","role":"default","createdAt":1694667968}],"meta":{"pagination":{"total":25,"count":5,"per_page":5,"current_page":3,"total_pages":5},"cursor":{"updatedAt":1694667984,"affix":"prepend"}}}'
        curl_info:
            url: 'https://244134adc586447f.api-us.cometchat.io/v3/users?perPage=5&page=3'
            content_type: application/json
            http_code: 200
            header_size: 764
            request_size: 242
            filetime: -1
            ssl_verify_result: 0
            redirect_count: 0
            total_time: 0.97285
            namelookup_time: 0.00457
            connect_time: 0.228796
            pretransfer_time: 0.707428
            size_upload: 2.0
            size_download: 633.0
            speed_download: 650.0
            speed_upload: 2.0
            download_content_length: 633.0
            upload_content_length: 2.0
            starttransfer_time: 0.972755
            redirect_time: 0.0
            redirect_url: ''
            primary_ip: 18.218.180.174
            certinfo: {  }
            primary_port: 443
            local_ip: 192.168.15.243
            local_port: 55894
            http_version: 2
            protocol: 2
            ssl_verifyresult: 0
            scheme: HTTPS
            appconnect_time_us: 707225
            connect_time_us: 228796
            namelookup_time_us: 4570
            pretransfer_time_us: 707428
            redirect_time_us: 0
            starttransfer_time_us: 972755
            total_time_us: 972850
    index: 0
-
    request:
        method: GET
        url: 'https://244134adc586447f.api-us.cometchat.io/v3/users?perPage=5&page=4'
        headers:
            Host: 244134adc586447f.api-us.cometchat.io
            Expect: ''
            Accept-Encoding: ''
            User-Agent: GuzzleHttp/7
            accept: application/json
            apikey: 4c3e5b5a96da90cc4bb3f3013d22e72aaea802c9
            content-type: application/json
        body: '[]'
    response:
        status:
            code: 200
            message: OK
        headers:
            Date: 'Thu, 14 Sep 2023 05:06:45 GMT'
            Content-Type: application/json
            Content-Length: '633'
            Connection: close
            Server: ''
            cache-control: 'must-revalidate, no-cache, private'
            Vary: Accept-Encoding
            Content-Encoding: none
            X-RateLimit-Limit: '20000'
            X-RateLimit-Remaining: '19995'
            X-RateLimit-Limit-For-App: '100000'
            X-RateLimit-Remaining-For-App: '99970'
            Access-Control-Allow-Origin: '*'
            Access-Control-Allow-Methods: 'OPTIONS,HEAD,GET,POST,PUT,PATCH,DELETE'
            Access-Control-Allow-Headers: 'Content-Type,Accept,Cache-Control,Authorization,X-Requested-With,appId,apiKey,authToken,onBehalfOf,resource,Accept-Encoding,group,region,sdk,guid,uid,clientEnvironment,extensionId,username,password,callToken,onBehalfOfUser'
            Accept: application/json
        body: '{"data":[{"uid":"user_009","name":"user_009","status":"offline","role":"default","createdAt":1694667967},{"uid":"user_008","name":"user_008","status":"offline","role":"default","createdAt":1694667966},{"uid":"user_007","name":"user_007","status":"offline","role":"default","createdAt":1694667965},{"uid":"user_006","name":"user_006","status":"offline","role":"default","createdAt":1694667964},{"uid":"user_005","name":"user_005","status":"offline","role":"default","createdAt":1694667963}],"meta":{"pagination":{"total":25,"count":5,"per_page":5,"current_page":4,"total_pages":5},"cursor":{"updatedAt":1694667984,"affix":"prepend"}}}'
        curl_info:
            url: 'https://244134adc586447f.api-us.cometchat.io/v3/users?perPage=5&page=4'
            content_type: application/json
            http_code: 200
            header_size: 747
            request_size: 242
            filetime: -1
            ssl_verify_result: 0
            redirect_count: 0
            total_time: 1.179421
            namelookup_time: 0.002941
            connect_time: 0.297194
            pretransfer_time: 0.811078
            size_upload: 2.0
            size_download: 633.0
            speed_download: 536.0
            speed_upload: 1.0
            download_content_length: 633.0
            upload_content_length: 2.0
            starttransfer_time: 1.179344
            redirect_time: 0.0
            redirect_url: ''
            primary_ip: 18.218.180.174
            certinfo: {  }
            primary_port: 443
            local_ip: 192.168.15.243
            local_port: 55899
            http_version: 2
            protocol: 2
            ssl_verifyresult: 0
            scheme: HTTPS
            appconnect_time_us: 810998
            connect_time_us: 297194
            namelookup_time_us: 2941
            pretransfer_time_us: 811078
            redirect_time_us: 0
            starttransfer_time_us: 1179344
            total_time_us: 1179421
    index: 0
-
    request:
        method: GET
        url: 'https://244134adc586447f.api-us.cometchat.io/v3/users?perPage=5&page=5'
        headers:
            Host: 244134adc586447f.api-us.cometchat.io
            Expect: ''
            Accept-Encoding: ''
            User-Agent: GuzzleHttp/7
            accept: application/json
            apikey: 4c3e5b5a96da90cc4bb3f3013d22e72aaea802c9
            content-type: application/json
        body: '[]'
    response:
        status:
            code: 200
            message: OK
        headers:
            Date: 'Thu, 14 Sep 2023 05:06:46 GMT'
            Content-Type: application/json
            Content-Length: '633'
            Connection: close
            Server: ''
            cache-control: 'must-revalidate, no-cache, private'
            Vary: Accept-Encoding
            Content-Encoding: none
            X-RateLimit-Limit: '20000'
            X-RateLimit-Remaining: '19994'
            X-RateLimit-Limit-For-App: '100000'
            X-RateLimit-Remaining-For-App: '99969'
            Access-Control-Allow-Origin: '*'
            Access-Control-Allow-Methods: 'OPTIONS,HEAD,GET,POST,PUT,PATCH,DELETE'
            Access-Control-Allow-Headers: 'Content-Type,Accept,Cache-Control,Authorization,X-Requested-With,appId,apiKey,authToken,onBehalfOf,resource,Accept-Encoding,group,region,sdk,guid,uid,clientEnvironment,extensionId,username,password,callToken,onBehalfOfUser'
            Accept: application/json
            Upgrade: 'h2,h2c'
        body: '{"data":[{"uid":"user_004","name":"user_004","status":"offline","role":"default","createdAt":1694667962},{"uid":"user_003","name":"user_003","status":"offline","role":"default","createdAt":1694667961},{"uid":"user_002","name":"user_002","status":"offline","role":"default","createdAt":1694667960},{"uid":"user_001","name":"user_001","status":"offline","role":"default","createdAt":1694667959},{"uid":"user_000","name":"user_000","status":"offline","role":"default","createdAt":1694667958}],"meta":{"pagination":{"total":25,"count":5,"per_page":5,"current_page":5,"total_pages":5},"cursor":{"updatedAt":1694667984,"affix":"prepend"}}}'
        curl_info:
            url: 'https://244134adc586447f.api-us.cometchat.io/v3/users?perPage=5&page=5'
            content_type: application/json
            http_code: 200
            header_size: 764
            request_size: 242
            filetime: -1
            ssl_verify_result: 0
            redirect_count: 0
            total_time: 1.279041
            namelookup_time: 0.002064
            connect_time: 0.316786
            pretransfer_time: 0.878351
            size_upload: 2.0
            size_download: 633.0
            speed_download: 494.0
            speed_upload: 1.0
            download_content_length: 633.0
            upload_content_length: 2.0
            starttransfer_time: 1.27896
            redirect_time: 0.0
            redirect_url: ''
            primary_ip: 18.218.180.174
            certinfo: {  }
            primary_port: 443
            local_ip: 192.168.15.243
            local_port: 55904
            http_version: 2
            protocol: 2
            ssl_verifyresult: 0
            scheme: HTTPS
            appconnect_time_us: 878222
            connect_time_us: 316786
            namelookup_time_us: 2064
            pretransfer_time_us: 878351
            redirect_time_us: 0
            starttransfer_time_us: 1278960
            total_time_us: 1279041
    index: 0
